/direct/star+u/veprbl/nix/store/xgmfa9wyvalff4v32y4x7lfxv3pll8wd-mymixer-pq
/direct/star+u/veprbl/nix/store/jblkb0asl9ya5hv1wqc0zx6wmj53ppfi-mymixer-pq
/direct/star+u/veprbl/nix/store/wh130m6dx44ay7yl049z3qn5bzfij37h-mymixer-pq
/direct/star+u/veprbl/nix/store/8v86sh35jmy6bqhqklnk0fxzwc5if4av-mymixer-pq
/direct/star+u/veprbl/nix/store/gsl4myphd3lxfvqx5n4lbhas6msr4qqm-mymixer-pq
/direct/star+u/veprbl/nix/store/rf78ymm3dsl9n84511v0l3q53mzlr6qf-mymixer-pq
/direct/star+u/veprbl/nix/store/h0wq2krsldjypqr9ldphbmx7xrjdrv1j-mymixer-pq
/direct/star+u/veprbl/nix/store/s1rrfb98mhqm20pwfjakwb8759fmh0pk-mymixer-pq
/direct/star+u/veprbl/nix/store/yshzvr1sgk30ic8dkl64nkpxhyyssxm2-mymixer-pq
/direct/star+u/veprbl/nix/store/asjwzf6sba88r5b576m62wv2xww2p3k6-mymixer-pq
/direct/star+u/veprbl/nix/store/sdl9nlcq2byl7vyrq56p66d3rnfwkyf8-mymixer-pq
/direct/star+u/veprbl/nix/store/ixy2hpr1951zs8vbipqk6xg72imk72k8-mymixer-pq
/direct/star+u/veprbl/nix/store/ybgydfxpadjdsngravpbcb866xfprj33-mymixer-pq
/direct/star+u/veprbl/nix/store/bdljilza7fyr0vjm4b5dxx6yznx5gdb6-mymixer-pq
/direct/star+u/veprbl/nix/store/3gwx6hp119z34586704bih2mpkrz93mz-mymixer-pq
/direct/star+u/veprbl/nix/store/gv6jdbr8ylcbsl6r0krwwb5fa2y37adp-mymixer-pq
/direct/star+u/veprbl/nix/store/kswc12gq7q71s6mfjp9s51d81ylwx103-mymixer-pq
/direct/star+u/veprbl/nix/store/8y3127q0grcdr5c4m1v6i0w4rlzcw1kk-mymixer-pq
/direct/star+u/veprbl/nix/store/17h1w7zcrxgwwcbkg8m16gmwzfdqyydq-mymixer-pq
/direct/star+u/veprbl/nix/store/g0wh59p2pjqhc177dxs10ib6lgz0fx59-mymixer-pq
/direct/star+u/veprbl/nix/store/kjs163zr01scak0r0jphhigrh6g8y06c-mymixer-pq
/direct/star+u/veprbl/nix/store/ixgd8mq3myz397m42cq5p0z9fwflvb47-mymixer-pq
/direct/star+u/veprbl/nix/store/x6kag434xn41p11yvnscqvgzfj1yfqkn-mymixer-pq
/direct/star+u/veprbl/nix/store/slnd65l6nkh5lyyfnaad84bc1hkb7c9p-mymixer-pq
/direct/star+u/veprbl/nix/store/l2sxhqhqlknj6pd6190irwmg8xf6j87v-mymixer-pq
/direct/star+u/veprbl/nix/store/jh9qv3s1ck3qx3lasn2bpkf8b20v1v6l-mymixer-pq
/direct/star+u/veprbl/nix/store/lkj8wqh9w40c71b614xwarbf8vaashfs-mymixer-pq
/direct/star+u/veprbl/nix/store/6yl8gnj8j0qybykq2gndqzx58zzaif47-mymixer-pq
/direct/star+u/veprbl/nix/store/lpg40v6p2pcq07v84sawpw1djpw1k5aw-mymixer-pq
/direct/star+u/veprbl/nix/store/q4c5whkyqx7rb4ccrksbspfq0c6sxy4w-mymixer-pq
/direct/star+u/veprbl/nix/store/m5shq7gpa6f4iyqa41cag83dcaiw16mj-mymixer-pq
/direct/star+u/veprbl/nix/store/hpq2mdkvvi4zmv9cgjv2wyldzh9bmsxq-mymixer-pq
/direct/star+u/veprbl/nix/store/f86gr1yq0c6rh5cx4pnqf1xjmhyh7i59-mymixer-pq
/direct/star+u/veprbl/nix/store/hx9yv9lcdzrk5bishcvgzfb90p1i2gkl-mymixer-pq
/direct/star+u/veprbl/nix/store/68hzya71n0p8a326b0alsrz84ajwyjch-mymixer-pq
/direct/star+u/veprbl/nix/store/8jgysywb6765zlqk01qyp777sw31vgc7-mymixer-pq
/direct/star+u/veprbl/nix/store/8x3095c9wapcv0lbaxaqhl3hql8cm32f-mymixer-pq
/direct/star+u/veprbl/nix/store/nlg8l5vam2grxx7kqgbzwqx7x9k66h3k-mymixer-pq
/direct/star+u/veprbl/nix/store/8rdldlij6lr2p5ba39bcifh7dmlszyz9-mymixer-pq
/direct/star+u/veprbl/nix/store/3x29qhn54mnv512fii5lj9i4xpnqqsni-mymixer-pq
/direct/star+u/veprbl/nix/store/kg9b1hr0nk2fqsh3pvf0h80ayggc6wxh-mymixer-pq
/direct/star+u/veprbl/nix/store/5f79mlhrjn2inrdh1bky7xi24mfl18ji-mymixer-pq
/direct/star+u/veprbl/nix/store/hki4za96m9wbh320vp1zml2bbhh2y9bc-mymixer-pq
/direct/star+u/veprbl/nix/store/pq1fi88bnmn2d0jbni1hgyqdjid557lk-mymixer-pq
/direct/star+u/veprbl/nix/store/xci0mxnw9bcb5bs71n3lkdcq24c8s4q5-mymixer-pq
/direct/star+u/veprbl/nix/store/fbair9mw30zkxzv0brfpp7zd0s1cw42m-mymixer-pq
/direct/star+u/veprbl/nix/store/fb0lqs13s6zkxb8sndb7v0abr5j0iq3r-mymixer-pq
/direct/star+u/veprbl/nix/store/mimadybcgpm7s5il575hr0lk2dy18z2y-mymixer-pq